%YAML 1.1
%TAG !u! tag:unity3d.com,2011:
--- !u!1045 &1
EditorBuildSettings:
  m_ObjectHideFlags: 0
  serializedVersion: 2
  m_Scenes:
  - enabled: 1
    path: Assets/Scenes/StartMenu.unity
    guid: 99c9720ab356a0642a771bea13969a05
  - enabled: 1
    path: Assets/Scenes/Training.unity
    guid: da1594498b840e64eb63a8b8a7f0914a
  - enabled: 1
    path: Assets/Scenes/Level1.unity
    guid: a5f20c479d4e1d14fb8c19d3fb38a2b5
  - enabled: 1
    path: Assets/Scenes/Level2.unity
    guid: ce526fdcacf82d643a8bc6a6334e5185
  - enabled: 1
    path: Assets/Scenes/Level3.unity
    guid: b6ef63520771fed449b16567ab078a4e
  - enabled: 1
    path: Assets/Scenes/Level4.unity
    guid: 4920729f5d54cbb4691f396d6aa646a0
  - enabled: 1
    path: Assets/Scenes/MiniGameScene/LevelOne.unity
    guid: 7dda3551244974648b751cb1a85118a6
  - enabled: 1
    path: Assets/Scenes/MiniGameScene/LevelTwo.unity
    guid: 2a0064d053f77f841899a38073e8a025
  m_configObjects: {}
