%YAML 1.1
%TAG !u! tag:unity3d.com,2011:
--- !u!21 &2100000
Material:
  serializedVersion: 8
  m_ObjectHideFlags: 0
  m_CorrespondingSourceObject: {fileID: 0}
  m_PrefabInstance: {fileID: 0}
  m_PrefabAsset: {fileID: 0}
  m_Name: M_VFX_Trail_Water_02
  m_Shader: {fileID: 4800000, guid: a4fb5c948d9384247b0fba909a27f9f7, type: 3}
  m_Parent: {fileID: 2100000, guid: c1eb2c55c7a0007498dedba8627fc122, type: 2}
  m_ModifiedSerializedProperties: 0
  m_ValidKeywords: []
  m_InvalidKeywords: []
  m_LightmapFlags: 4
  m_EnableInstancingVariants: 0
  m_DoubleSidedGI: 0
  m_CustomRenderQueue: -1
  stringTagMap: {}
  disabledShaderPasses: []
  m_LockedProperties: 
  m_SavedProperties:
    serializedVersion: 3
    m_TexEnvs:
    - _Mask:
        m_Texture: {fileID: 2800000, guid: 7c62bff3e18bae248a540401db4f27f3, type: 3}
        m_Scale: {x: 1, y: 1}
        m_Offset: {x: 0, y: 0}
    m_Ints: []
    m_Floats:
    - _AlphaIsDissolve: 1
    - _Erosion_Multiply: 0.5
    - _Mask_Multiply: 0.6
    - _WindSpeed: -5
    m_Colors:
    - _Color_Scale: {r: 0.5, g: 1, b: 0, a: 0}
    - _Mask_Scale: {r: 0.3, g: 1, b: 0, a: 0}
  m_BuildTextureStacks: []
